{
  	"1" : {"first_name":"Vitaly","last_name":"Erofeev","middle_name":"Urich","email":"asd@sad","phone_number":"12731623"},
  	"2" : {"first_name":"Julie","last_name":"Tsvetkova","middle_name":"Aleks","email":"as@sad","phone_number":"12731"}
}